{
    "local": {
        "awscloudformation": {
            "AuthRoleName": "hnga-1-20190426165813-authRole",
            "UnauthRoleArn": "arn:aws:iam::544215915840:role/hnga-1-20190426165813-unauthRole",
            "AuthRoleArn": "arn:aws:iam::544215915840:role/hnga-1-20190426165813-authRole",
            "Region": "us-east-1",
            "DeploymentBucketName": "hnga-1-20190426165813-deployment",
            "UnauthRoleName": "hnga-1-20190426165813-unauthRole",
            "StackName": "hnga-1-20190426165813",
            "StackId": "arn:aws:cloudformation:us-east-1:544215915840:stack/hnga-1-20190426165813/01f83f31-6866-11e9-8d8d-0adb15c4df9c"
        },
        "categories": {
            "auth": {
                "cognitof2639497": {}
            }
        }
    }
}